%YAML 1.1
%TAG !u! tag:unity3d.com,2011:
--- !u!21 &2100000
Material:
  serializedVersion: 6
  m_ObjectHideFlags: 0
  m_CorrespondingSourceObject: {fileID: 0}
  m_PrefabInstance: {fileID: 0}
  m_PrefabAsset: {fileID: 0}
  m_Name: EelTexture
  m_Shader: {fileID: 4800000, guid: 8d4e2fe6c56150d4a817c74fe05e2da1, type: 3}
  m_ShaderKeywords: 
  m_LightmapFlags: 4
  m_EnableInstancingVariants: 0
  m_DoubleSidedGI: 0
  m_CustomRenderQueue: -1
  stringTagMap: {}
  disabledShaderPasses: []
  m_SavedProperties:
    serializedVersion: 3
    m_TexEnvs:
    - _MainTex:
        m_Texture: {fileID: 2800000, guid: 71f657c0c0355cd47822859731769c21, type: 3}
        m_Scale: {x: 1, y: 1}
        m_Offset: {x: 0, y: 0}
    m_Floats:
    - _Glossiness: 1.75
    - _RimLimit: 0.83
    - _RimValue: 0.86
    m_Colors:
    - _AmbientColor: {r: 0.16470589, g: 0.1764706, b: 0.2882353, a: 1}
    - _Color: {r: 0.6226415, g: 0.61383057, b: 0.61383057, a: 1}
    - _RimColor: {r: 1, g: 1, b: 1, a: 1}
    - _SpecularColor: {r: 0.7264151, g: 0.7264151, b: 0.7264151, a: 1}
